…
Background – Has the epidemic affected the status of American universities in the hearts of international students?

The United States is recognized as the country with the highest quality of education in the world. This has attracted many students from other countries to study in the United States. During the epidemic, many students have temporarily adjusted their study abroad plans. But the epidemic did not stop the attractiveness of prestigious schools in the slightest.

## # A tibble: 43 × 7
##    Year    Enrolled_International_Stud…¹ Optio…² Total…³ Annua…⁴ Total…⁵ %Inte…⁶
##    <chr>                           <dbl>   <dbl>   <dbl>   <dbl>   <dbl>   <dbl>
##  1 1979/80                        283503    2840  286343     8.5  1.16e7     2.5
##  2 1980/81                        308432    3450  311882     8.9  1.21e7     2.6
##  3 1981/82                        323419    2880  326299     4.6  1.24e7     2.6
##  4 1982/83                        333365    3620  336985     3.3  1.24e7     2.7
##  5 1983/84                        335494    3400  338894     0.6  1.25e7     2.7
##  6 1984/85                        337803    4310  342113     0.9  1.22e7     2.8
##  7 1985/86                        339627    4150  343777     0.5  1.22e7     2.8
##  8 1986/87                        344879    4730  349609     1.7  1.25e7     2.8
##  9 1987/88                        351387    4800  356187     1.9  1.28e7     2.8
## 10 1988/89                        359334    7020  366354     2.9  1.31e7     2.8
## # … with 33 more rows, and abbreviated variable names
## #   ¹​Enrolled_International_Students, ²​`Optional Practical Training (OPT)`,
## #   ³​Total_International_Students, ⁴​`Annual%Change`, ⁵​`Total U.S. Enrollment*`,
## #   ⁶​`%International`
…
